<svg xmlns="http://www.w3.org/2000/svg" width="200" height="28" viewBox="0 0 200 28">
  <g id="그룹_4932" data-name="그룹 4932" transform="translate(15326 1802)">
    <g id="그룹_4933" data-name="그룹 4933" transform="translate(-1)">
      <text id="수소충전소_모니터링_시스템" data-name="수소충전소 모니터링 시스템" transform="translate(-15293 -1782)" fill="#fff" font-size="13" font-family="S-CoreDream-5Medium, 'S-Core Dream \35 '" font-weight="500" letter-spacing="-0.055em"><tspan x="0" y="0">수소충전소 모니터링 시스템</tspan></text>
      <path id="패스_1" data-name="패스 1" d="M488.454,197.4c-.4-.234-.808-.462-1.22-.678a.287.287,0,0,1-.183-.355,10.8,10.8,0,0,0,0-3.848.287.287,0,0,1,.191-.351c.4-.212.8-.435,1.193-.662a1.419,1.419,0,0,0,.582-2.075q-1.178-1.991-2.378-3.971a1.532,1.532,0,0,0-2.132-.555q-.628.339-1.245.7a.265.265,0,0,1-.355-.018,11.625,11.625,0,0,0-3.5-1.957.246.246,0,0,1-.2-.281q.014-.71,0-1.421a1.452,1.452,0,0,0-1.472-1.463q-2.478-.029-4.957,0a1.451,1.451,0,0,0-1.471,1.464c-.007.464-.01.928,0,1.391a.282.282,0,0,1-.229.324,11.45,11.45,0,0,0-3.449,1.924.3.3,0,0,1-.406.021c-.41-.24-.825-.473-1.245-.7a1.525,1.525,0,0,0-2.089.542q-1.218,2-2.41,4.023a1.408,1.408,0,0,0,.57,2.033c.411.238.826.471,1.246.695.138.073.2.144.167.3a11.05,11.05,0,0,0,0,3.909.248.248,0,0,1-.155.31q-.66.346-1.3.722a1.413,1.413,0,0,0-.559,1.946c.165.3.354.592.524.892.011.018.022.035.033.051l1.291,2.155a.77.77,0,0,0,.045.08c.186.291.354.592.536.886a1.544,1.544,0,0,0,2.137.548q.628-.339,1.245-.7a.265.265,0,0,1,.354.023,11.564,11.564,0,0,0,3.5,1.952.245.245,0,0,1,.193.286c-.008.453-.005.907,0,1.361a1.469,1.469,0,0,0,1.54,1.525q2.415.022,4.831,0a1.469,1.469,0,0,0,1.53-1.5c0-.454.008-.907,0-1.361a.262.262,0,0,1,.206-.307,11.684,11.684,0,0,0,3.5-1.959.246.246,0,0,1,.329-.026c.41.24.826.471,1.244.7a1.539,1.539,0,0,0,2.158-.55q1.2-1.979,2.377-3.971A1.413,1.413,0,0,0,488.454,197.4Zm-12.621-.722q-.006-1.385-.015-2.771a.153.153,0,0,1,.064-.13q.567-.541,1.13-1.087l.416-.4.035.057a8.629,8.629,0,0,1,1.206,2.5A3.2,3.2,0,0,1,477,198.177a4.032,4.032,0,0,1-1.152.415l-.036.007v-.005h0a2.513,2.513,0,0,0,.013-.3c0-.04,0-.079,0-.123l.006-.71Zm.008-4.433v-2.178l.923,1.236.026.036C476.474,191.636,476.166,191.933,475.84,192.248Zm-1.185,5.923c0,.132.006.243.01.332,0,.034,0,.07,0,.1-.074-.018-.173-.045-.27-.072l-.149-.041a3.4,3.4,0,0,1-2.494-3.015,2.709,2.709,0,0,1,.231-1.159l.9.869c.569.549,1.158,1.116,1.733,1.677.073.072.071.156.047.347a1.6,1.6,0,0,0-.018.259Zm-.015-2.864-.629-.606c-.464-.448-.944-.911-1.423-1.361-.11-.1-.1-.116-.043-.2h0c.068-.1.126-.2.182-.3s.1-.176.152-.254c.124-.179,1.214-1.763,1.637-2.342a1.012,1.012,0,0,0,.069-.088l.055-.077Zm8.969-.3q0,.063-.01.127c0,.02,0,.04-.005.059a7.882,7.882,0,0,1-1.879,4.395,7.633,7.633,0,0,1-2.152,1.8q-.145.08-.292.152-.248.131-.505.245a2.2,2.2,0,0,1-2.024-.2,2.107,2.107,0,0,1-.929-1.833c0-.015,0-.027,0-.036l.037-.006a4.6,4.6,0,0,0,2.246-.905,4.188,4.188,0,0,0,1.267-5.4,27.876,27.876,0,0,0-3.643-5.281.614.614,0,0,0-.475-.25h0a.667.667,0,0,0-.512.28c-.186.224-.371.453-.549.676s-.368.459-.556.684a1.035,1.035,0,0,0-.079.109c-.352.49-1.491,2.079-1.673,2.394l-.11.191a13.815,13.815,0,0,0-.7,1.328,4.137,4.137,0,0,0-.452,2.1,4.5,4.5,0,0,0,3.86,4.04c.2.033.2.033.2.259a3.057,3.057,0,0,0,1.055,2.274,2.878,2.878,0,0,0,.354.276q-.41.039-.83.039A8.575,8.575,0,0,1,471,201.406l-.025-.014q-.13-.075-.257-.153l-.065-.041q-.108-.068-.214-.14l-.037-.025a7.979,7.979,0,0,1-3.527-6.583,7.86,7.86,0,0,1,.069-1.042,7.374,7.374,0,0,1,.667-2.273,8.257,8.257,0,0,1,4.1-4,8.105,8.105,0,0,1,1.764-.573,8.715,8.715,0,0,1,1.778-.183q.44,0,.868.043a1.451,1.451,0,0,1,.147.016,8.194,8.194,0,0,1,7.357,7.807A7.058,7.058,0,0,1,483.61,195.006Z" transform="translate(-15786.254 -1982.45)" fill="#fff"/>
    </g>
  </g>
</svg>
